FPGA Code/VHDL Code/simulation/qsim/P1.msim.vcd
$comment
	File created using the following command:
		vcd file P1.msim.vcd -direction
$end
$date
	Fri May 04 19:58:12 2018
$end
$version
	ModelSim Version 10.5b
$end
$timescale
	1ps
$end

$scope module p1_vhd_vec_tst $end
$var wire 1 ! ADC_IN [11] $end
$var wire 1 " ADC_IN [10] $end
$var wire 1 # ADC_IN [9] $end
$var wire 1 $ ADC_IN [8] $end
$var wire 1 % ADC_IN [7] $end
$var wire 1 & ADC_IN [6] $end
$var wire 1 ' ADC_IN [5] $end
$var wire 1 ( ADC_IN [4] $end
$var wire 1 ) ADC_IN [3] $end
$var wire 1 * ADC_IN [2] $end
$var wire 1 + ADC_IN [1] $end
$var wire 1 , ADC_IN [0] $end
$var wire 1 - CLK $end
$var wire 1 . RESET $end
$var wire 1 / USER_BUTTON $end
$var wire 1 0 Y [15] $end
$var wire 1 1 Y [14] $end
$var wire 1 2 Y [13] $end
$var wire 1 3 Y [12] $end
$var wire 1 4 Y [11] $end
$var wire 1 5 Y [10] $end
$var wire 1 6 Y [9] $end
$var wire 1 7 Y [8] $end
$var wire 1 8 Y [7] $end
$var wire 1 9 Y [6] $end
$var wire 1 : Y [5] $end
$var wire 1 ; Y [4] $end
$var wire 1 < Y [3] $end
$var wire 1 = Y [2] $end
$var wire 1 > Y [1] $end
$var wire 1 ? Y [0] $end
$var wire 1 @ Z [3] $end
$var wire 1 A Z [2] $end
$var wire 1 B Z [1] $end
$var wire 1 C Z [0] $end

$scope module i1 $end
$var wire 1 D gnd $end
$var wire 1 E vcc $end
$var wire 1 F unknown $end
$var wire 1 G devoe $end
$var wire 1 H devclrn $end
$var wire 1 I devpor $end
$var wire 1 J ww_devoe $end
$var wire 1 K ww_devclrn $end
$var wire 1 L ww_devpor $end
$var wire 1 M ww_Y [15] $end
$var wire 1 N ww_Y [14] $end
$var wire 1 O ww_Y [13] $end
$var wire 1 P ww_Y [12] $end
$var wire 1 Q ww_Y [11] $end
$var wire 1 R ww_Y [10] $end
$var wire 1 S ww_Y [9] $end
$var wire 1 T ww_Y [8] $end
$var wire 1 U ww_Y [7] $end
$var wire 1 V ww_Y [6] $end
$var wire 1 W ww_Y [5] $end
$var wire 1 X ww_Y [4] $end
$var wire 1 Y ww_Y [3] $end
$var wire 1 Z ww_Y [2] $end
$var wire 1 [ ww_Y [1] $end
$var wire 1 \ ww_Y [0] $end
$var wire 1 ] ww_CLK $end
$var wire 1 ^ ww_RESET $end
$var wire 1 _ ww_USER_BUTTON $end
$var wire 1 ` ww_ADC_IN [11] $end
$var wire 1 a ww_ADC_IN [10] $end
$var wire 1 b ww_ADC_IN [9] $end
$var wire 1 c ww_ADC_IN [8] $end
$var wire 1 d ww_ADC_IN [7] $end
$var wire 1 e ww_ADC_IN [6] $end
$var wire 1 f ww_ADC_IN [5] $end
$var wire 1 g ww_ADC_IN [4] $end
$var wire 1 h ww_ADC_IN [3] $end
$var wire 1 i ww_ADC_IN [2] $end
$var wire 1 j ww_ADC_IN [1] $end
$var wire 1 k ww_ADC_IN [0] $end
$var wire 1 l ww_Z [3] $end
$var wire 1 m ww_Z [2] $end
$var wire 1 n ww_Z [1] $end
$var wire 1 o ww_Z [0] $end
$var wire 1 p \CLK~inputclkctrl_INCLK_bus\ [3] $end
$var wire 1 q \CLK~inputclkctrl_INCLK_bus\ [2] $end
$var wire 1 r \CLK~inputclkctrl_INCLK_bus\ [1] $end
$var wire 1 s \CLK~inputclkctrl_INCLK_bus\ [0] $end
$var wire 1 t \Y[15]~output_o\ $end
$var wire 1 u \Y[14]~output_o\ $end
$var wire 1 v \Y[13]~output_o\ $end
$var wire 1 w \Y[12]~output_o\ $end
$var wire 1 x \Y[11]~output_o\ $end
$var wire 1 y \Y[10]~output_o\ $end
$var wire 1 z \Y[9]~output_o\ $end
$var wire 1 { \Y[8]~output_o\ $end
$var wire 1 | \Y[7]~output_o\ $end
$var wire 1 } \Y[6]~output_o\ $end
$var wire 1 ~ \Y[5]~output_o\ $end
$var wire 1 !! \Y[4]~output_o\ $end
$var wire 1 "! \Y[3]~output_o\ $end
$var wire 1 #! \Y[2]~output_o\ $end
$var wire 1 $! \Y[1]~output_o\ $end
$var wire 1 %! \Y[0]~output_o\ $end
$var wire 1 &! \Z[3]~output_o\ $end
$var wire 1 '! \Z[2]~output_o\ $end
$var wire 1 (! \Z[1]~output_o\ $end
$var wire 1 )! \Z[0]~output_o\ $end
$var wire 1 *! \CLK~input_o\ $end
$var wire 1 +! \CLK~inputclkctrl_outclk\ $end
$var wire 1 ,! \RESET~input_o\ $end
$var wire 1 -! \inst|ADC_out[15]~13_combout\ $end
$var wire 1 .! \USER_BUTTON~input_o\ $end
$var wire 1 /! \inst|ADC_out[15]~0_combout\ $end
$var wire 1 0! \ADC_IN[11]~input_o\ $end
$var wire 1 1! \ADC_IN[10]~input_o\ $end
$var wire 1 2! \inst|Buffer1~3_combout\ $end
$var wire 1 3! \ADC_IN[4]~input_o\ $end
$var wire 1 4! \ADC_IN[5]~input_o\ $end
$var wire 1 5! \ADC_IN[3]~input_o\ $end
$var wire 1 6! \ADC_IN[6]~input_o\ $end
$var wire 1 7! \inst|Buffer1[6]~feeder_combout\ $end
$var wire 1 8! \inst|Equal0~1_combout\ $end
$var wire 1 9! \ADC_IN[8]~input_o\ $end
$var wire 1 :! \inst|Buffer1[8]~feeder_combout\ $end
$var wire 1 ;! \ADC_IN[9]~input_o\ $end
$var wire 1 <! \ADC_IN[7]~input_o\ $end
$var wire 1 =! \inst|Equal0~0_combout\ $end
$var wire 1 >! \ADC_IN[1]~input_o\ $end
$var wire 1 ?! \ADC_IN[2]~input_o\ $end
$var wire 1 @! \ADC_IN[0]~input_o\ $end
$var wire 1 A! \inst|Buffer1[0]~feeder_combout\ $end
$var wire 1 B! \inst|Equal0~2_combout\ $end
$var wire 1 C! \inst|Buffer1~1_combout\ $end
$var wire 1 D! \inst|Buffer1~2_combout\ $end
$var wire 1 E! \inst|Buffer1[11]~0_combout\ $end
$var wire 1 F! \inst|Buffer1~5_combout\ $end
$var wire 1 G! \inst|Buffer1~7_combout\ $end
$var wire 1 H! \inst|Buffer1~6_combout\ $end
$var wire 1 I! \inst|Buffer1~4_combout\ $end
$var wire 1 J! \inst|Buffer1~8_combout\ $end
$var wire 1 K! \inst|Buffer1[11]~9_combout\ $end
$var wire 1 L! \inst|ADC_out~1_combout\ $end
$var wire 1 M! \inst|ADC_out~2_combout\ $end
$var wire 1 N! \inst|ADC_out~3_combout\ $end
$var wire 1 O! \inst|ADC_out~4_combout\ $end
$var wire 1 P! \inst|ADC_out~5_combout\ $end
$var wire 1 Q! \inst|ADC_out~6_combout\ $end
$var wire 1 R! \inst|ADC_out~7_combout\ $end
$var wire 1 S! \inst|ADC_out~8_combout\ $end
$var wire 1 T! \inst|ADC_out~9_combout\ $end
$var wire 1 U! \inst|ADC_out~10_combout\ $end
$var wire 1 V! \inst|ADC_out~11_combout\ $end
$var wire 1 W! \inst|ADC_out~12_combout\ $end
$var wire 1 X! \inst|ADC_out\ [15] $end
$var wire 1 Y! \inst|ADC_out\ [14] $end
$var wire 1 Z! \inst|ADC_out\ [13] $end
$var wire 1 [! \inst|ADC_out\ [12] $end
$var wire 1 \! \inst|ADC_out\ [11] $end
$var wire 1 ]! \inst|ADC_out\ [10] $end
$var wire 1 ^! \inst|ADC_out\ [9] $end
$var wire 1 _! \inst|ADC_out\ [8] $end
$var wire 1 `! \inst|ADC_out\ [7] $end
$var wire 1 a! \inst|ADC_out\ [6] $end
$var wire 1 b! \inst|ADC_out\ [5] $end
$var wire 1 c! \inst|ADC_out\ [4] $end
$var wire 1 d! \inst|ADC_out\ [3] $end
$var wire 1 e! \inst|ADC_out\ [2] $end
$var wire 1 f! \inst|ADC_out\ [1] $end
$var wire 1 g! \inst|ADC_out\ [0] $end
$var wire 1 h! \inst|Buffer1\ [11] $end
$var wire 1 i! \inst|Buffer1\ [10] $end
$var wire 1 j! \inst|Buffer1\ [9] $end
$var wire 1 k! \inst|Buffer1\ [8] $end
$var wire 1 l! \inst|Buffer1\ [7] $end
$var wire 1 m! \inst|Buffer1\ [6] $end
$var wire 1 n! \inst|Buffer1\ [5] $end
$var wire 1 o! \inst|Buffer1\ [4] $end
$var wire 1 p! \inst|Buffer1\ [3] $end
$var wire 1 q! \inst|Buffer1\ [2] $end
$var wire 1 r! \inst|Buffer1\ [1] $end
$var wire 1 s! \inst|Buffer1\ [0] $end
$upscope $end
$upscope $end
$enddefinitions $end
#0
$dumpvars
1-
1.
0/
0D
1E
xF
1G
1H
1I
1J
1K
1L
1]
1^
0_
0t
0u
0v
0w
0x
0y
0z
0{
0|
0}
0~
0!!
0"!
0#!
0$!
0%!
0&!
0'!
0(!
0)!
1*!
1+!
1,!
0-!
0.!
1/!
10!
11!
12!
03!
04!
15!
06!
07!
18!
09!
0:!
0;!
0<!
1=!
1>!
0?!
0@!
0A!
1B!
1C!
1D!
0E!
0F!
0G!
0H!
1I!
1J!
0K!
0L!
0M!
0N!
0O!
0P!
0Q!
0R!
0S!
0T!
0U!
0V!
0W!
1!
1"
0#
0$
0%
0&
0'
0(
1)
0*
1+
0,
0M
0N
0O
0P
0Q
0R
0S
0T
0U
0V
0W
0X
0Y
0Z
0[
0\
1`
1a
0b
0c
0d
0e
0f
0g
1h
0i
1j
0k
0l
0m
0n
0o
0X!
xY!
xZ!
0[!
0\!
0]!
0^!
0_!
0`!
0a!
0b!
0c!
0d!
0e!
0f!
0g!
0h!
0i!
0j!
0k!
0l!
0m!
0n!
0o!
0p!
0q!
0r!
0s!
1p
1q
1r
1s
00
01
02
03
04
05
06
07
08
09
0:
0;
0<
0=
0>
0?
0@
0A
0B
0C
$end
#20000
0-
0]
0*!
0s
0+!
#40000
1-
0.
1]
0^
0,!
1*!
1s
1-!
0/!
1+!
#60000
0-
0]
0*!
0s
0+!
#80000
1-
1]
1*!
1s
1+!
#100000
0-
0!
1&
1'
1(
0+
1,
1/
0]
1k
0j
1g
1f
1e
0`
1_
1.!
00!
16!
14!
13!
0>!
1@!
0*!
0s
1A!
1F!
17!
1H!
1/!
1E!
1K!
0+!
#120000
1-
1]
1*!
1s
1+!
1X!
1i!
1o!
1n!
1p!
1m!
1s!
0B!
0C!
1W!
0H!
1Q!
0I!
1T!
1R!
08!
0F!
1S!
02!
0=!
1M!
0J!
0D!
1t
0K!
1M
10
#140000
0-
0/
0]
0_
0.!
0*!
0s
0+!
#160000
1-
1]
1*!
1s
1+!
1]!
1a!
1b!
1c!
1d!
1g!
1%!
1"!
1!!
1~
1}
1y
1\
1Y
1X
1W
1V
1R
1?
1<
1;
1:
19
15
#180000
0-
0]
0*!
0s
0+!
#200000
1-
1!
0'
1+
1$
1%
0)
1]
1j
0h
0f
1d
1c
1`
10!
19!
1<!
04!
05!
1>!
1*!
1s
1C!
1I!
1F!
1H!
1:!
1G!
12!
1K!
1J!
1D!
1+!
0n!
0p!
1k!
1l!
1r!
1h!
02!
1L!
0C!
1V!
0H!
1P!
0G!
1O!
0I!
0T!
0F!
0R!
0J!
0D!
0K!
#220000
0-
0]
0*!
0s
0+!
#240000
1-
1]
1*!
1s
1+!
1\!
1_!
1`!
0b!
0d!
1f!
1$!
0"!
0~
1|
1{
1x
1[
0Y
0W
1U
1T
1Q
1>
0<
0:
18
17
14
#260000
0-
0]
0*!
0s
0+!
#280000
1-
1]
1*!
1s
1+!
#300000
0-
1'
0$
0%
0&
0,
0"
0]
0k
1f
0e
0d
0c
0a
01!
09!
0<!
06!
14!
0@!
0*!
0s
0A!
1C!
1F!
07!
1H!
0:!
1G!
12!
1K!
1J!
1D!
0+!
#320000
1-
1.
1]
1^
1,!
1*!
1s
0-!
0E!
0L!
0M!
0O!
0P!
0Q!
0S!
0V!
0W!
0K!
1+!
0X!
1[!
0\!
0]!
0_!
0`!
0a!
0c!
0f!
0g!
0%!
0$!
0!!
0}
0|
0{
0y
0x
1v
1w
0t
0\
0[
0X
0V
0U
0T
0R
0Q
1O
1P
0M
0?
0>
0;
09
08
07
05
04
13
12
00
#340000
0-
0]
0*!
0s
0+!
#360000
1-
1]
1*!
1s
1+!
#380000
0-
1/
0]
1_
1.!
0*!
0s
0+!
#400000
1-
0'
1"
0!
0+
1)
0(
1#
1]
0j
1h
0g
0f
1b
1a
0`
00!
11!
1;!
04!
03!
15!
0>!
1*!
1s
1I!
1+!
#420000
0-
0/
0]
0_
0.!
0*!
0s
0+!
#440000
1-
1]
1*!
1s
1+!
#460000
0-
0]
0*!
0s
0+!
#480000
1-
0.
1]
0^
0,!
1*!
1s
1-!
0/!
1L!
1M!
1O!
1P!
1Q!
1S!
1V!
1W!
1+!
#500000
0-
1'
0"
1!
0#
1$
1%
1&
0]
1f
1e
1d
1c
0b
0a
1`
10!
01!
0;!
19!
1<!
16!
14!
0*!
0s
17!
0H!
1:!
0G!
0+!
#520000
1-
1]
1*!
1s
1+!
#540000
0-
1/
0]
1_
1.!
0*!
0s
1/!
1E!
1K!
0+!
#560000
1-
1]
1*!
1s
1+!
1X!
0[!
0i!
0o!
1n!
1p!
0r!
0s!
1\!
1]!
1_!
1`!
1a!
1c!
1f!
1g!
0W!
0C!
0V!
0I!
1T!
1R!
0F!
0S!
02!
0M!
0J!
0D!
1%!
1$!
1!!
1}
1|
1{
1y
1x
0v
0w
1t
0K!
1\
1[
1X
1V
1U
1T
1R
1Q
0O
0P
1M
1?
1>
1;
19
18
17
15
14
03
02
10
#580000
0-
0]
0*!
0s
0+!
#600000
1-
0/
0'
1"
0!
0$
1(
1,
1]
0_
1k
1g
0f
0c
1a
0`
00!
11!
09!
04!
13!
1@!
0.!
1*!
1s
1A!
1C!
1F!
0:!
1G!
12!
1K!
1J!
1D!
1+!
1i!
1o!
0n!
0k!
1s!
0h!
0]!
1b!
0c!
1d!
0f!
0g!
0L!
0C!
1W!
0G!
0O!
0R!
0F!
1S!
02!
1M!
0J!
0D!
0%!
0$!
1"!
0!!
1~
0y
0K!
0\
0[
1Y
0X
1W
0R
0?
0>
1<
0;
1:
05
#620000
0-
0]
0*!
0s
0+!
#640000
1-
1]
1*!
1s
1+!
0\!
1]!
0_!
0b!
1c!
1g!
1%!
1!!
0~
0{
1y
0x
1\
1X
0W
0T
1R
0Q
1?
1;
0:
07
15
04
#660000
0-
0]
0*!
0s
0+!
#680000
1-
1]
1*!
1s
1+!
#700000
0-
0"
1!
1$
0,
0&
1+
0)
1*
0]
0k
1j
1i
0h
0e
1c
0a
1`
10!
01!
19!
06!
05!
1?!
1>!
0@!
0*!
0s
0A!
1C!
1I!
07!
1H!
1:!
1G!
12!
1K!
1J!
1D!
0+!
#720000
1-
1]
1*!
1s
1+!
0i!
0p!
0m!
1k!
1r!
1q!
0s!
1h!
1L!
0W!
1U!
0C!
1V!
0G!
1O!
0H!
0Q!
0I!
0T!
02!
0M!
0J!
0D!
0K!
#740000
0-
0]
0*!
0s
0+!
#760000
1-
1]
1*!
1s
1+!
1\!
0]!
1_!
0a!
0d!
1e!
1f!
0g!
0%!
1$!
1#!
0"!
0}
1{
0y
1x
0\
1[
1Z
0Y
0V
1T
0R
1Q
0?
1>
1=
0<
09
17
05
14
#780000
0-
0]
0*!
0s
0+!
#800000
1-
1"
0!
0$
1,
0+
1)
1#
1]
1k
0j
1h
0c
1b
1a
0`
00!
11!
1;!
09!
15!
0>!
1@!
1*!
1s
1A!
1C!
1I!
0:!
1G!
12!
1K!
1J!
1D!
1+!
1i!
1p!
0k!
1j!
0r!
1s!
0h!
0L!
1W!
0C!
0V!
1N!
0G!
0O!
0I!
1T!
02!
1M!
0J!
0D!
0K!
#820000
0-
0]
0*!
0s
0+!
#840000
1-
1]
1*!
1s
1+!
0\!
1]!
1^!
0_!
1d!
0f!
1g!
1%!
0$!
1"!
0{
1z
1y
0x
1\
0[
1Y
0T
1S
1R
0Q
1?
0>
1<
07
16
15
04
#860000
0-
0]
0*!
0s
0+!
#880000
1-
1]
1*!
1s
1+!
#900000
0-
0"
1$
1+
0)
0*
1'
0(
0%
0]
1j
0i
0h
0g
1f
0d
1c
0a
01!
19!
0<!
14!
03!
05!
0?!
1>!
0*!
0s
1C!
1I!
1F!
1H!
1:!
1G!
12!
1K!
1J!
1D!
0+!
#920000
1-
1]
1*!
1s
1+!
0i!
0o!
1n!
0p!
1k!
0l!
1r!
0q!
0U!
0C!
1V!
0H!
0P!
0G!
1O!
0I!
0T!
1R!
0F!
0S!
02!
0M!
0J!
0D!
0K!
#940000
0-
0]
0*!
0s
0+!
#960000
1-
1]
1*!
1s
1+!
0]!
1_!
0`!
1b!
0c!
0d!
0e!
1f!
1$!
0#!
0"!
0!!
1~
0|
1{
0y
1[
0Z
0Y
0X
1W
0U
1T
0R
1>
0=
0<
0;
1:
08
17
05
#980000
0-
0]
0*!
0s
0+!
