FPGA Code/VHDL Code/simulation/qsim/P1.msim.vcd
$comment
	File created using the following command:
		vcd file P1.msim.vcd -direction
$end
$date
	Tue May 01 12:21:58 2018
$end
$version
	ModelSim Version 10.5b
$end
$timescale
	1ps
$end

$scope module p1_vhd_vec_tst $end
$var wire 1 ! ADC_IN [11] $end
$var wire 1 " ADC_IN [10] $end
$var wire 1 # ADC_IN [9] $end
$var wire 1 $ ADC_IN [8] $end
$var wire 1 % ADC_IN [7] $end
$var wire 1 & ADC_IN [6] $end
$var wire 1 ' ADC_IN [5] $end
$var wire 1 ( ADC_IN [4] $end
$var wire 1 ) ADC_IN [3] $end
$var wire 1 * ADC_IN [2] $end
$var wire 1 + ADC_IN [1] $end
$var wire 1 , ADC_IN [0] $end
$var wire 1 - CLK $end
$var wire 1 . RESET $end
$var wire 1 / USER_BUTTON $end
$var wire 1 0 Y [15] $end
$var wire 1 1 Y [14] $end
$var wire 1 2 Y [13] $end
$var wire 1 3 Y [12] $end
$var wire 1 4 Y [11] $end
$var wire 1 5 Y [10] $end
$var wire 1 6 Y [9] $end
$var wire 1 7 Y [8] $end
$var wire 1 8 Y [7] $end
$var wire 1 9 Y [6] $end
$var wire 1 : Y [5] $end
$var wire 1 ; Y [4] $end
$var wire 1 < Y [3] $end
$var wire 1 = Y [2] $end
$var wire 1 > Y [1] $end
$var wire 1 ? Y [0] $end

$scope module i1 $end
$var wire 1 @ gnd $end
$var wire 1 A vcc $end
$var wire 1 B unknown $end
$var wire 1 C devoe $end
$var wire 1 D devclrn $end
$var wire 1 E devpor $end
$var wire 1 F ww_devoe $end
$var wire 1 G ww_devclrn $end
$var wire 1 H ww_devpor $end
$var wire 1 I ww_Y [15] $end
$var wire 1 J ww_Y [14] $end
$var wire 1 K ww_Y [13] $end
$var wire 1 L ww_Y [12] $end
$var wire 1 M ww_Y [11] $end
$var wire 1 N ww_Y [10] $end
$var wire 1 O ww_Y [9] $end
$var wire 1 P ww_Y [8] $end
$var wire 1 Q ww_Y [7] $end
$var wire 1 R ww_Y [6] $end
$var wire 1 S ww_Y [5] $end
$var wire 1 T ww_Y [4] $end
$var wire 1 U ww_Y [3] $end
$var wire 1 V ww_Y [2] $end
$var wire 1 W ww_Y [1] $end
$var wire 1 X ww_Y [0] $end
$var wire 1 Y ww_CLK $end
$var wire 1 Z ww_RESET $end
$var wire 1 [ ww_USER_BUTTON $end
$var wire 1 \ ww_ADC_IN [11] $end
$var wire 1 ] ww_ADC_IN [10] $end
$var wire 1 ^ ww_ADC_IN [9] $end
$var wire 1 _ ww_ADC_IN [8] $end
$var wire 1 ` ww_ADC_IN [7] $end
$var wire 1 a ww_ADC_IN [6] $end
$var wire 1 b ww_ADC_IN [5] $end
$var wire 1 c ww_ADC_IN [4] $end
$var wire 1 d ww_ADC_IN [3] $end
$var wire 1 e ww_ADC_IN [2] $end
$var wire 1 f ww_ADC_IN [1] $end
$var wire 1 g ww_ADC_IN [0] $end
$var wire 1 h \USER_BUTTON~inputclkctrl_INCLK_bus\ [3] $end
$var wire 1 i \USER_BUTTON~inputclkctrl_INCLK_bus\ [2] $end
$var wire 1 j \USER_BUTTON~inputclkctrl_INCLK_bus\ [1] $end
$var wire 1 k \USER_BUTTON~inputclkctrl_INCLK_bus\ [0] $end
$var wire 1 l \CLK~inputclkctrl_INCLK_bus\ [3] $end
$var wire 1 m \CLK~inputclkctrl_INCLK_bus\ [2] $end
$var wire 1 n \CLK~inputclkctrl_INCLK_bus\ [1] $end
$var wire 1 o \CLK~inputclkctrl_INCLK_bus\ [0] $end
$var wire 1 p \Y[15]~output_o\ $end
$var wire 1 q \Y[14]~output_o\ $end
$var wire 1 r \Y[13]~output_o\ $end
$var wire 1 s \Y[12]~output_o\ $end
$var wire 1 t \Y[11]~output_o\ $end
$var wire 1 u \Y[10]~output_o\ $end
$var wire 1 v \Y[9]~output_o\ $end
$var wire 1 w \Y[8]~output_o\ $end
$var wire 1 x \Y[7]~output_o\ $end
$var wire 1 y \Y[6]~output_o\ $end
$var wire 1 z \Y[5]~output_o\ $end
$var wire 1 { \Y[4]~output_o\ $end
$var wire 1 | \Y[3]~output_o\ $end
$var wire 1 } \Y[2]~output_o\ $end
$var wire 1 ~ \Y[1]~output_o\ $end
$var wire 1 !! \Y[0]~output_o\ $end
$var wire 1 "! \USER_BUTTON~input_o\ $end
$var wire 1 #! \RESET~input_o\ $end
$var wire 1 $! \inst|comb~0_combout\ $end
$var wire 1 %! \CLK~input_o\ $end
$var wire 1 &! \CLK~inputclkctrl_outclk\ $end
$var wire 1 '! \ADC_IN[11]~input_o\ $end
$var wire 1 (! \ADC_IN[9]~input_o\ $end
$var wire 1 )! \ADC_IN[7]~input_o\ $end
$var wire 1 *! \ADC_IN[8]~input_o\ $end
$var wire 1 +! \ADC_IN[6]~input_o\ $end
$var wire 1 ,! \inst|Buffer1[11]~2_combout\ $end
$var wire 1 -! \ADC_IN[0]~input_o\ $end
$var wire 1 .! \ADC_IN[1]~input_o\ $end
$var wire 1 /! \inst|Buffer1[11]~0_combout\ $end
$var wire 1 0! \ADC_IN[4]~input_o\ $end
$var wire 1 1! \ADC_IN[3]~input_o\ $end
$var wire 1 2! \ADC_IN[5]~input_o\ $end
$var wire 1 3! \ADC_IN[2]~input_o\ $end
$var wire 1 4! \inst|Buffer1[11]~1_combout\ $end
$var wire 1 5! \inst|latched~combout\ $end
$var wire 1 6! \ADC_IN[10]~input_o\ $end
$var wire 1 7! \inst|Buffer1[11]~3_combout\ $end
$var wire 1 8! \inst|Buffer1[11]~4_combout\ $end
$var wire 1 9! \USER_BUTTON~inputclkctrl_outclk\ $end
$var wire 1 :! \inst|Buffer1\ [11] $end
$var wire 1 ;! \inst|Buffer1\ [10] $end
$var wire 1 <! \inst|Buffer1\ [9] $end
$var wire 1 =! \inst|Buffer1\ [8] $end
$var wire 1 >! \inst|Buffer1\ [7] $end
$var wire 1 ?! \inst|Buffer1\ [6] $end
$var wire 1 @! \inst|Buffer1\ [5] $end
$var wire 1 A! \inst|Buffer1\ [4] $end
$var wire 1 B! \inst|Buffer1\ [3] $end
$var wire 1 C! \inst|Buffer1\ [2] $end
$var wire 1 D! \inst|Buffer1\ [1] $end
$var wire 1 E! \inst|Buffer1\ [0] $end
$var wire 1 F! \inst|ADC_out\ [15] $end
$var wire 1 G! \inst|ADC_out\ [14] $end
$var wire 1 H! \inst|ADC_out\ [13] $end
$var wire 1 I! \inst|ADC_out\ [12] $end
$var wire 1 J! \inst|ADC_out\ [11] $end
$var wire 1 K! \inst|ADC_out\ [10] $end
$var wire 1 L! \inst|ADC_out\ [9] $end
$var wire 1 M! \inst|ADC_out\ [8] $end
$var wire 1 N! \inst|ADC_out\ [7] $end
$var wire 1 O! \inst|ADC_out\ [6] $end
$var wire 1 P! \inst|ADC_out\ [5] $end
$var wire 1 Q! \inst|ADC_out\ [4] $end
$var wire 1 R! \inst|ADC_out\ [3] $end
$var wire 1 S! \inst|ADC_out\ [2] $end
$var wire 1 T! \inst|ADC_out\ [1] $end
$var wire 1 U! \inst|ADC_out\ [0] $end
$upscope $end
$upscope $end
$enddefinitions $end
#0
$dumpvars
0-
0.
0/
0@
1A
xB
1C
1D
1E
1F
1G
1H
0Y
0Z
0[
xp
0q
xr
xs
xt
xu
xv
xw
xx
xy
xz
x{
x|
x}
x~
x!!
0"!
0#!
0$!
0%!
0&!
0'!
0(!
1)!
1*!
1+!
1,!
1-!
1.!
0/!
10!
11!
12!
03!
14!
x5!
06!
x7!
08!
09!
0!
0"
0#
1$
1%
1&
1'
1(
1)
0*
1+
1,
xI
0J
xK
xL
xM
xN
xO
xP
xQ
xR
xS
xT
xU
xV
xW
xX
0\
0]
0^
1_
1`
1a
1b
1c
1d
0e
1f
1g
0:!
0;!
0<!
0=!
0>!
0?!
0@!
0A!
0B!
0C!
0D!
0E!
xF!
xG!
xH!
xI!
xJ!
xK!
xL!
xM!
xN!
xO!
xP!
xQ!
xR!
xS!
xT!
xU!
1l
1m
1n
0o
1h
1i
1j
0k
x0
01
x2
x3
x4
x5
x6
x7
x8
x9
x:
x;
x<
x=
x>
x?
$end
#10000
1-
1Y
1%!
1o
1&!
#20000
0-
0Y
0%!
0o
0&!
#30000
1-
1Y
1%!
1o
1&!
#40000
0-
0Y
0%!
0o
0&!
#50000
1-
1Y
1%!
1o
1&!
#60000
0-
0Y
0%!
0o
0&!
#70000
1-
1Y
1%!
1o
1&!
#80000
0-
0Y
0%!
0o
0&!
#90000
1-
1Y
1%!
1o
1&!
#100000
0-
1!
1"
0$
0%
0'
0(
1*
0+
0,
0Y
0g
0f
1e
0c
0b
0`
0_
1]
1\
1'!
16!
0*!
0)!
02!
00!
13!
0.!
0-!
0%!
0o
0&!
#110000
1-
1Y
1%!
1o
1&!
#120000
0-
1/
0Y
1[
1"!
0%!
1k
0o
1F!
1$!
1/!
15!
17!
x8!
0H!
0I!
0&!
19!
18!
1p
0J!
0K!
0L!
0M!
0N!
0O!
0P!
0Q!
0R!
0S!
0T!
0U!
1I
0s
0r
10
0L
0K
03
02
0!!
0~
0}
0|
0{
0z
0y
0x
0w
0v
0u
0t
0X
0W
0V
0U
0T
0S
0R
0Q
0P
0O
0N
0M
0?
0>
0=
0<
0;
0:
09
08
07
06
05
04
#130000
1-
1Y
1%!
1o
1&!
1?!
1B!
1C!
1;!
1:!
1J!
07!
1K!
1S!
04!
1R!
0,!
1O!
08!
1y
1|
1}
1u
1t
1R
1U
1V
1N
1M
1=
1<
19
15
14
#140000
0-
0/
0Y
0[
0"!
0%!
0k
0o
0$!
0/!
0&!
09!
#150000
1-
1Y
1%!
1o
1&!
#160000
0-
0Y
0%!
0o
0&!
#170000
1-
1Y
1%!
1o
1&!
#180000
0-
0Y
0%!
0o
0&!
#190000
1-
1Y
1%!
1o
1&!
#200000
0-
0!
1$
1%
1+
1,
0&
0)
0Y
1g
1f
0d
0a
1`
1_
0\
0'!
1*!
1)!
0+!
01!
1.!
1-!
0%!
0o
0&!
#210000
1-
1Y
1%!
1o
1&!
#220000
0-
0Y
0%!
0o
0&!
#230000
1-
1Y
1%!
1o
1&!
#240000
0-
0Y
0%!
0o
0&!
#250000
1-
1Y
1%!
1o
1&!
#260000
0-
0Y
0%!
0o
0&!
#270000
1-
1Y
1%!
1o
1&!
#280000
0-
0Y
0%!
0o
0&!
#290000
1-
1Y
1%!
1o
1&!
#300000
0-
1!
0$
0%
0+
0,
1(
1.
0Y
0g
0f
1c
0`
0_
1\
1Z
1#!
1'!
0*!
0)!
10!
0.!
0-!
0%!
0o
0F!
1H!
1I!
05!
0J!
0K!
0O!
0R!
0S!
0&!
0}
0|
0y
0u
0t
1s
1r
0p
0V
0U
0R
0N
0M
1L
1K
0I
0=
0<
09
05
04
13
12
00
#310000
1-
1Y
1%!
1o
1&!
#320000
0-
0Y
0%!
0o
0&!
#330000
1-
1Y
1%!
1o
1&!
#340000
0-
0.
0Y
0Z
0#!
0%!
0o
0&!
#350000
1-
1Y
1%!
1o
1&!
#360000
0-
0Y
0%!
0o
0&!
#370000
1-
1Y
1%!
1o
1&!
#380000
0-
0Y
0%!
0o
0&!
#390000
1-
1Y
1%!
1o
1&!
#400000
0-
1+
0(
1&
0Y
1f
0c
1a
1+!
00!
1.!
0%!
0o
0&!
#410000
1-
1Y
1%!
1o
1&!
#420000
0-
0Y
0%!
0o
0&!
#430000
1-
1Y
1%!
1o
1&!
#440000
0-
0Y
0%!
0o
0&!
#450000
1-
1Y
1%!
1o
1&!
#460000
0-
0Y
0%!
0o
0&!
#470000
1-
1Y
1%!
1o
1&!
#480000
0-
0Y
0%!
0o
0&!
#490000
1-
1Y
1%!
1o
1&!
#500000
0-
0+
1(
0&
1%
1)
0"
1'
0*
0Y
0f
0e
1d
1c
1b
0a
1`
0]
06!
1)!
0+!
12!
10!
11!
03!
0.!
0%!
0o
0&!
#510000
1-
1Y
1%!
1o
1&!
#520000
0-
1.
0Y
1Z
1#!
0%!
0o
0&!
#530000
1-
1Y
1%!
1o
1&!
#540000
0-
1/
0Y
1[
1"!
0%!
1k
0o
0&!
19!
#550000
1-
1Y
1%!
1o
1&!
#560000
0-
0/
0Y
0[
0"!
0%!
0k
0o
0&!
09!
#570000
1-
1Y
1%!
1o
1&!
#580000
0-
0.
0Y
0Z
0#!
0%!
0o
0&!
#590000
1-
1Y
1%!
1o
1&!
#600000
0-
1+
0(
1&
0%
1*
1,
0Y
1g
1f
1e
0c
1a
0`
0)!
1+!
00!
13!
1.!
1-!
0%!
0o
0&!
#610000
1-
1Y
1%!
1o
1&!
#620000
0-
0Y
0%!
0o
0&!
#630000
1-
1Y
1%!
1o
1&!
#640000
0-
0Y
0%!
0o
0&!
#650000
1-
1Y
1%!
1o
1&!
#660000
0-
1/
0Y
1[
1"!
0%!
1k
0o
1F!
1$!
1/!
15!
0H!
0I!
0&!
19!
1p
1J!
1K!
1O!
1R!
1S!
1I
0s
0r
10
0L
0K
03
02
1}
1|
1y
1u
1t
1V
1U
1R
1N
1M
1=
1<
19
15
14
#670000
1-
1Y
1%!
1o
1&!
#680000
0-
0Y
0%!
0o
0&!
#690000
1-
1Y
1%!
1o
1&!
#700000
0-
0/
0+
1(
0&
0!
1$
1#
0Y
0[
0f
1c
0a
1_
1^
0\
0'!
1(!
1*!
0+!
10!
0.!
0"!
0%!
0k
0o
0$!
0/!
0&!
09!
#710000
1-
1Y
1%!
1o
1&!
#720000
0-
0Y
0%!
0o
0&!
#730000
1-
1Y
1%!
1o
1&!
#740000
0-
0Y
0%!
0o
0&!
#750000
1-
1Y
1%!
1o
1&!
#760000
0-
0Y
0%!
0o
0&!
#770000
1-
1Y
1%!
1o
1&!
#780000
0-
0Y
0%!
0o
0&!
#790000
1-
1Y
1%!
1o
1&!
#800000
0-
0(
0$
1"
0'
0Y
0c
0b
0_
1]
16!
0*!
02!
00!
0%!
0o
0&!
#810000
1-
1Y
1%!
1o
1&!
#820000
0-
0Y
0%!
0o
0&!
#830000
1-
1Y
1%!
1o
1&!
#840000
0-
0Y
0%!
0o
0&!
#850000
1-
1Y
1%!
1o
1&!
#860000
0-
0Y
0%!
0o
0&!
#870000
1-
1Y
1%!
1o
1&!
#880000
0-
0Y
0%!
0o
0&!
#890000
1-
1Y
1%!
1o
1&!
#900000
0-
1$
0"
1'
1+
1&
1!
0#
0,
0)
0Y
0g
1f
0d
1b
1a
1_
0^
0]
1\
1'!
06!
0(!
1*!
1+!
12!
01!
1.!
0-!
0%!
0o
0&!
#910000
1-
1Y
1%!
1o
1&!
#920000
0-
0Y
0%!
0o
0&!
#930000
1-
1Y
1%!
1o
1&!
#940000
0-
0Y
0%!
0o
0&!
#950000
1-
1Y
1%!
1o
1&!
#960000
0-
0Y
0%!
0o
0&!
#970000
1-
1Y
1%!
1o
1&!
#980000
0-
0Y
0%!
0o
0&!
#990000
1-
1Y
1%!
1o
1&!
