FPGA Code/VHDL Code/simulation/qsim/P1.msim.vcd
$comment
	File created using the following command:
		vcd file P1.msim.vcd -direction
$end
$date
	Mon Apr 30 12:21:28 2018
$end
$version
	ModelSim Version 10.5b
$end
$timescale
	1ps
$end

$scope module p1_vhd_vec_tst $end
$var wire 1 ! ADC_IN [11] $end
$var wire 1 " ADC_IN [10] $end
$var wire 1 # ADC_IN [9] $end
$var wire 1 $ ADC_IN [8] $end
$var wire 1 % ADC_IN [7] $end
$var wire 1 & ADC_IN [6] $end
$var wire 1 ' ADC_IN [5] $end
$var wire 1 ( ADC_IN [4] $end
$var wire 1 ) ADC_IN [3] $end
$var wire 1 * ADC_IN [2] $end
$var wire 1 + ADC_IN [1] $end
$var wire 1 , ADC_IN [0] $end
$var wire 1 - CLK $end
$var wire 1 . RESET $end
$var wire 1 / Y [11] $end
$var wire 1 0 Y [10] $end
$var wire 1 1 Y [9] $end
$var wire 1 2 Y [8] $end
$var wire 1 3 Y [7] $end
$var wire 1 4 Y [6] $end
$var wire 1 5 Y [5] $end
$var wire 1 6 Y [4] $end
$var wire 1 7 Y [3] $end
$var wire 1 8 Y [2] $end
$var wire 1 9 Y [1] $end
$var wire 1 : Y [0] $end

$scope module i1 $end
$var wire 1 ; gnd $end
$var wire 1 < vcc $end
$var wire 1 = unknown $end
$var wire 1 > devoe $end
$var wire 1 ? devclrn $end
$var wire 1 @ devpor $end
$var wire 1 A ww_devoe $end
$var wire 1 B ww_devclrn $end
$var wire 1 C ww_devpor $end
$var wire 1 D ww_Y [11] $end
$var wire 1 E ww_Y [10] $end
$var wire 1 F ww_Y [9] $end
$var wire 1 G ww_Y [8] $end
$var wire 1 H ww_Y [7] $end
$var wire 1 I ww_Y [6] $end
$var wire 1 J ww_Y [5] $end
$var wire 1 K ww_Y [4] $end
$var wire 1 L ww_Y [3] $end
$var wire 1 M ww_Y [2] $end
$var wire 1 N ww_Y [1] $end
$var wire 1 O ww_Y [0] $end
$var wire 1 P ww_CLK $end
$var wire 1 Q ww_RESET $end
$var wire 1 R ww_ADC_IN [11] $end
$var wire 1 S ww_ADC_IN [10] $end
$var wire 1 T ww_ADC_IN [9] $end
$var wire 1 U ww_ADC_IN [8] $end
$var wire 1 V ww_ADC_IN [7] $end
$var wire 1 W ww_ADC_IN [6] $end
$var wire 1 X ww_ADC_IN [5] $end
$var wire 1 Y ww_ADC_IN [4] $end
$var wire 1 Z ww_ADC_IN [3] $end
$var wire 1 [ ww_ADC_IN [2] $end
$var wire 1 \ ww_ADC_IN [1] $end
$var wire 1 ] ww_ADC_IN [0] $end
$var wire 1 ^ \RESET~inputclkctrl_INCLK_bus\ [3] $end
$var wire 1 _ \RESET~inputclkctrl_INCLK_bus\ [2] $end
$var wire 1 ` \RESET~inputclkctrl_INCLK_bus\ [1] $end
$var wire 1 a \RESET~inputclkctrl_INCLK_bus\ [0] $end
$var wire 1 b \CLK~inputclkctrl_INCLK_bus\ [3] $end
$var wire 1 c \CLK~inputclkctrl_INCLK_bus\ [2] $end
$var wire 1 d \CLK~inputclkctrl_INCLK_bus\ [1] $end
$var wire 1 e \CLK~inputclkctrl_INCLK_bus\ [0] $end
$var wire 1 f \Y[11]~output_o\ $end
$var wire 1 g \Y[10]~output_o\ $end
$var wire 1 h \Y[9]~output_o\ $end
$var wire 1 i \Y[8]~output_o\ $end
$var wire 1 j \Y[7]~output_o\ $end
$var wire 1 k \Y[6]~output_o\ $end
$var wire 1 l \Y[5]~output_o\ $end
$var wire 1 m \Y[4]~output_o\ $end
$var wire 1 n \Y[3]~output_o\ $end
$var wire 1 o \Y[2]~output_o\ $end
$var wire 1 p \Y[1]~output_o\ $end
$var wire 1 q \Y[0]~output_o\ $end
$var wire 1 r \CLK~input_o\ $end
$var wire 1 s \CLK~inputclkctrl_outclk\ $end
$var wire 1 t \ADC_IN[11]~input_o\ $end
$var wire 1 u \inst1|ADC_out[11]~feeder_combout\ $end
$var wire 1 v \RESET~input_o\ $end
$var wire 1 w \RESET~inputclkctrl_outclk\ $end
$var wire 1 x \ADC_IN[10]~input_o\ $end
$var wire 1 y \inst1|ADC_out[10]~feeder_combout\ $end
$var wire 1 z \ADC_IN[9]~input_o\ $end
$var wire 1 { \inst1|ADC_out[9]~feeder_combout\ $end
$var wire 1 | \ADC_IN[8]~input_o\ $end
$var wire 1 } \ADC_IN[7]~input_o\ $end
$var wire 1 ~ \ADC_IN[6]~input_o\ $end
$var wire 1 !! \inst1|ADC_out[6]~feeder_combout\ $end
$var wire 1 "! \ADC_IN[5]~input_o\ $end
$var wire 1 #! \inst1|ADC_out[5]~feeder_combout\ $end
$var wire 1 $! \ADC_IN[4]~input_o\ $end
$var wire 1 %! \ADC_IN[3]~input_o\ $end
$var wire 1 &! \inst1|ADC_out[3]~feeder_combout\ $end
$var wire 1 '! \ADC_IN[2]~input_o\ $end
$var wire 1 (! \inst1|ADC_out[2]~feeder_combout\ $end
$var wire 1 )! \ADC_IN[1]~input_o\ $end
$var wire 1 *! \inst1|ADC_out[1]~feeder_combout\ $end
$var wire 1 +! \ADC_IN[0]~input_o\ $end
$var wire 1 ,! \inst1|ADC_out[0]~feeder_combout\ $end
$var wire 1 -! \inst1|ADC_out\ [11] $end
$var wire 1 .! \inst1|ADC_out\ [10] $end
$var wire 1 /! \inst1|ADC_out\ [9] $end
$var wire 1 0! \inst1|ADC_out\ [8] $end
$var wire 1 1! \inst1|ADC_out\ [7] $end
$var wire 1 2! \inst1|ADC_out\ [6] $end
$var wire 1 3! \inst1|ADC_out\ [5] $end
$var wire 1 4! \inst1|ADC_out\ [4] $end
$var wire 1 5! \inst1|ADC_out\ [3] $end
$var wire 1 6! \inst1|ADC_out\ [2] $end
$var wire 1 7! \inst1|ADC_out\ [1] $end
$var wire 1 8! \inst1|ADC_out\ [0] $end
$var wire 1 9! \ALT_INV_RESET~inputclkctrl_outclk\ $end
$upscope $end
$upscope $end
$enddefinitions $end
#0
$dumpvars
0-
0.
0;
1<
x=
1>
1?
1@
1A
1B
1C
0P
0Q
0f
0g
0h
0i
0j
0k
0l
0m
0n
0o
0p
0q
0r
0s
1t
1u
0v
0w
0x
0y
0z
0{
0|
1}
0~
0!!
1"!
1#!
1$!
0%!
0&!
0'!
0(!
0)!
0*!
0+!
0,!
19!
1!
0"
0#
0$
1%
0&
1'
1(
0)
0*
0+
0,
0D
0E
0F
0G
0H
0I
0J
0K
0L
0M
0N
0O
1R
0S
0T
0U
1V
0W
1X
1Y
0Z
0[
0\
0]
0-!
0.!
0/!
00!
01!
02!
03!
04!
05!
06!
07!
08!
1b
1c
1d
0e
1^
1_
1`
0a
0/
00
01
02
03
04
05
06
07
08
09
0:
$end
#5000
1-
1P
1r
1e
1s
1-!
11!
13!
14!
1m
1l
1j
1f
1K
1J
1H
1D
16
15
13
1/
#10000
0-
0P
0r
0e
0s
#15000
1-
1P
1r
1e
1s
#20000
0-
0P
0r
0e
0s
#25000
1-
1P
1r
1e
1s
#30000
0-
0P
0r
0e
0s
#35000
1-
1P
1r
1e
1s
#40000
0-
0P
0r
0e
0s
#45000
1-
1P
1r
1e
1s
#50000
0-
0P
0r
0e
0s
#55000
1-
1P
1r
1e
1s
#60000
0-
0P
0r
0e
0s
#65000
1-
1P
1r
1e
1s
#70000
0-
0P
0r
0e
0s
#75000
1-
1P
1r
1e
1s
#80000
0-
1.
0P
1Q
1v
0r
1a
0e
0s
1w
09!
0-!
01!
03!
04!
0m
0l
0j
0f
0K
0J
0H
0D
06
05
03
0/
#85000
1-
1P
1r
1e
1s
#90000
0-
0P
0r
0e
0s
#95000
1-
1P
1r
1e
1s
#100000
0-
0!
1"
1#
1&
0P
1W
1T
1S
0R
0t
1x
1z
1~
0r
0e
1!!
1{
1y
0u
0s
#105000
1-
1P
1r
1e
1s
#110000
0-
0P
0r
0e
0s
#115000
1-
1P
1r
1e
1s
#120000
0-
0.
0P
0Q
0v
0r
0a
0e
0s
0w
19!
#125000
1-
1P
1r
1e
1s
1.!
1/!
11!
12!
13!
14!
1m
1l
1k
1j
1h
1g
1K
1J
1I
1H
1F
1E
16
15
14
13
11
10
#130000
0-
0P
0r
0e
0s
#135000
1-
1P
1r
1e
1s
#140000
0-
0P
0r
0e
0s
#145000
1-
1P
1r
1e
1s
#150000
0-
0P
0r
0e
0s
#155000
1-
1P
1r
1e
1s
#160000
0-
0P
0r
0e
0s
#165000
1-
1P
1r
1e
1s
#170000
0-
0P
0r
0e
0s
#175000
1-
1P
1r
1e
1s
#180000
0-
0P
0r
0e
0s
#185000
1-
1P
1r
1e
1s
#190000
0-
0P
0r
0e
0s
#195000
1-
1P
1r
1e
1s
#200000
0-
0#
0%
0(
1,
0P
1]
0Y
0V
0T
0z
0}
0$!
1+!
0r
0e
1,!
0{
0s
#205000
1-
1P
1r
1e
1s
0/!
01!
04!
18!
1q
0m
0j
0h
1O
0K
0H
0F
1:
06
03
01
#210000
0-
0P
0r
0e
0s
#215000
1-
1P
1r
1e
1s
#220000
0-
0P
0r
0e
0s
#225000
1-
1P
1r
1e
1s
#230000
0-
0P
0r
0e
0s
#235000
1-
1P
1r
1e
1s
#240000
0-
0P
0r
0e
0s
#245000
1-
1P
1r
1e
1s
#250000
0-
0P
0r
0e
0s
#255000
1-
1P
1r
1e
1s
#260000
0-
0P
0r
0e
0s
#265000
1-
1P
1r
1e
1s
#270000
0-
0P
0r
0e
0s
#275000
1-
1P
1r
1e
1s
#280000
0-
0P
0r
0e
0s
#285000
1-
1P
1r
1e
1s
#290000
0-
0P
0r
0e
0s
#295000
1-
1P
1r
1e
1s
#300000
0-
0,
0"
0&
1$
0'
1*
1+
0P
0]
1\
1[
0X
0W
1U
0S
0x
1|
0~
0"!
1'!
1)!
0+!
0r
0e
0,!
1*!
1(!
0#!
0!!
0y
0s
#305000
1-
1P
1r
1e
1s
0.!
10!
02!
03!
16!
17!
08!
0q
1p
1o
0l
0k
1i
0g
0O
1N
1M
0J
0I
1G
0E
0:
19
18
05
04
12
00
#310000
0-
0P
0r
0e
0s
#315000
1-
1P
1r
1e
1s
#320000
0-
0P
0r
0e
0s
#325000
1-
1P
1r
1e
1s
#330000
0-
0P
0r
0e
0s
#335000
1-
1P
1r
1e
1s
#340000
0-
0P
0r
0e
0s
#345000
1-
1P
1r
1e
1s
#350000
0-
0P
0r
0e
0s
#355000
1-
1P
1r
1e
1s
#360000
0-
0P
0r
0e
0s
#365000
1-
1P
1r
1e
1s
#370000
0-
0P
0r
0e
0s
#375000
1-
1P
1r
1e
1s
#380000
0-
0P
0r
0e
0s
#385000
1-
1P
1r
1e
1s
#390000
0-
0P
0r
0e
0s
#395000
1-
1P
1r
1e
1s
#400000
0-
1"
1&
0$
0*
0+
1%
1(
0P
0\
0[
1Y
1W
1V
0U
1S
1x
0|
1}
1~
1$!
0'!
0)!
0r
0e
0*!
0(!
1!!
1y
0s
#405000
1-
1P
1r
1e
1s
1.!
00!
11!
12!
14!
06!
07!
0p
0o
1m
1k
1j
0i
1g
0N
0M
1K
1I
1H
0G
1E
09
08
16
14
13
02
10
#410000
0-
0P
0r
0e
0s
#415000
1-
1P
1r
1e
1s
#420000
0-
0P
0r
0e
0s
#425000
1-
1P
1r
1e
1s
#430000
0-
0P
0r
0e
0s
#435000
1-
1P
1r
1e
1s
#440000
0-
0P
0r
0e
0s
#445000
1-
1P
1r
1e
1s
#450000
0-
0P
0r
0e
0s
#455000
1-
1P
1r
1e
1s
#460000
0-
0P
0r
0e
0s
#465000
1-
1P
1r
1e
1s
#470000
0-
0P
0r
0e
0s
#475000
1-
1P
1r
1e
1s
#480000
0-
0P
0r
0e
0s
#485000
1-
1P
1r
1e
1s
#490000
0-
0P
0r
0e
0s
#495000
1-
1P
1r
1e
1s
#500000
0-
0&
1$
1*
1+
0(
1,
1'
1)
0P
1]
1\
1[
1Z
0Y
1X
0W
1U
1|
0~
1"!
0$!
1%!
1'!
1)!
1+!
0r
0e
1,!
1*!
1(!
1&!
1#!
0!!
0s
#505000
1-
1P
1r
1e
1s
10!
02!
13!
04!
15!
16!
17!
18!
1q
1p
1o
1n
0m
1l
0k
1i
1O
1N
1M
1L
0K
1J
0I
1G
1:
19
18
17
06
15
04
12
#510000
0-
0P
0r
0e
0s
#515000
1-
1P
1r
1e
1s
#520000
0-
0P
0r
0e
0s
#525000
1-
1P
1r
1e
1s
#530000
0-
0P
0r
0e
0s
#535000
1-
1P
1r
1e
1s
#540000
0-
0P
0r
0e
0s
#545000
1-
1P
1r
1e
1s
#550000
0-
0P
0r
0e
0s
#555000
1-
1P
1r
1e
1s
#560000
0-
0P
0r
0e
0s
#565000
1-
1P
1r
1e
1s
#570000
0-
0P
0r
0e
0s
#575000
1-
1P
1r
1e
1s
#580000
0-
0P
0r
0e
0s
#585000
1-
1P
1r
1e
1s
#590000
0-
0P
0r
0e
0s
#595000
1-
1P
1r
1e
1s
#600000
0-
0$
0*
1(
0'
0)
0"
1#
0P
0[
0Z
1Y
0X
0U
1T
0S
0x
1z
0|
0"!
1$!
0%!
0'!
0r
0e
0(!
0&!
0#!
1{
0y
0s
#605000
1-
1P
1r
1e
1s
0.!
1/!
00!
03!
14!
05!
06!
0o
0n
1m
0l
0i
1h
0g
0M
0L
1K
0J
0G
1F
0E
08
07
16
05
02
11
00
#610000
0-
0P
0r
0e
0s
#615000
1-
1P
1r
1e
1s
#620000
0-
0P
0r
0e
0s
#625000
1-
1P
1r
1e
1s
#630000
0-
0P
0r
0e
0s
#635000
1-
1P
1r
1e
1s
#640000
0-
0P
0r
0e
0s
#645000
1-
1P
1r
1e
1s
#650000
0-
0P
0r
0e
0s
#655000
1-
1P
1r
1e
1s
#660000
0-
0P
0r
0e
0s
#665000
1-
1P
1r
1e
1s
#670000
0-
0P
0r
0e
0s
#675000
1-
1P
1r
1e
1s
#680000
0-
0P
0r
0e
0s
#685000
1-
1P
1r
1e
1s
#690000
0-
0P
0r
0e
0s
#695000
1-
1P
1r
1e
1s
#700000
0-
1*
1)
0%
1!
0P
1[
1Z
0V
1R
1t
0}
1%!
1'!
0r
0e
1(!
1&!
1u
0s
#705000
1-
1P
1r
1e
1s
1-!
01!
15!
16!
1o
1n
0j
1f
1M
1L
0H
1D
18
17
03
1/
#710000
0-
0P
0r
0e
0s
#715000
1-
1P
1r
1e
1s
#720000
0-
0P
0r
0e
0s
#725000
1-
1P
1r
1e
1s
#730000
0-
0P
0r
0e
0s
#735000
1-
1P
1r
1e
1s
#740000
0-
0P
0r
0e
0s
#745000
1-
1P
1r
1e
1s
#750000
0-
0P
0r
0e
0s
#755000
1-
1P
1r
1e
1s
#760000
0-
0P
0r
0e
0s
#765000
1-
1P
1r
1e
1s
#770000
0-
0P
0r
0e
0s
#775000
1-
1P
1r
1e
1s
#780000
0-
0P
0r
0e
0s
#785000
1-
1P
1r
1e
1s
#790000
0-
0P
0r
0e
0s
#795000
1-
1P
1r
1e
1s
#800000
0-
0*
0)
0!
1$
0(
0#
1&
0P
0[
0Z
0Y
1W
1U
0T
0R
0t
0z
1|
1~
0$!
0%!
0'!
0r
0e
0(!
0&!
1!!
0{
0u
0s
#805000
1-
1P
1r
1e
1s
0-!
0/!
10!
12!
04!
05!
06!
0o
0n
0m
1k
1i
0h
0f
0M
0L
0K
1I
1G
0F
0D
08
07
06
14
12
01
0/
#810000
0-
0P
0r
0e
0s
#815000
1-
1P
1r
1e
1s
#820000
0-
0P
0r
0e
0s
#825000
1-
1P
1r
1e
1s
#830000
0-
0P
0r
0e
0s
#835000
1-
1P
1r
1e
1s
#840000
0-
0P
0r
0e
0s
#845000
1-
1P
1r
1e
1s
#850000
0-
0P
0r
0e
0s
#855000
1-
1P
1r
1e
1s
#860000
0-
0P
0r
0e
0s
#865000
1-
1P
1r
1e
1s
#870000
0-
0P
0r
0e
0s
#875000
1-
1P
1r
1e
1s
#880000
0-
0P
0r
0e
0s
#885000
1-
1P
1r
1e
1s
#890000
0-
0P
0r
0e
0s
#895000
1-
1P
1r
1e
1s
#900000
0-
1*
1(
0&
1%
1"
0+
0P
0\
1[
1Y
0W
1V
1S
1x
1}
0~
1$!
1'!
0)!
0r
0e
0*!
1(!
0!!
1y
0s
#905000
1-
1P
1r
1e
1s
1.!
11!
02!
14!
16!
07!
0p
1o
1m
0k
1j
1g
0N
1M
1K
0I
1H
1E
09
18
16
04
13
10
#910000
0-
0P
0r
0e
0s
#915000
1-
1P
1r
1e
1s
#920000
0-
0P
0r
0e
0s
#925000
1-
1P
1r
1e
1s
#930000
0-
0P
0r
0e
0s
#935000
1-
1P
1r
1e
1s
#940000
0-
0P
0r
0e
0s
#945000
1-
1P
1r
1e
1s
#950000
0-
0P
0r
0e
0s
#955000
1-
1P
1r
1e
1s
#960000
0-
0P
0r
0e
0s
#965000
1-
1P
1r
1e
1s
#970000
0-
0P
0r
0e
0s
#975000
1-
1P
1r
1e
1s
#980000
0-
0P
0r
0e
0s
#985000
1-
1P
1r
1e
1s
#990000
0-
0P
0r
0e
0s
#995000
1-
1P
1r
1e
1s
