FPGA Code/VHDL Code/simulation/qsim/P1.msim.vcd
$comment
	File created using the following command:
		vcd file P1.msim.vcd -direction
$end
$date
	Mon Apr 30 12:44:37 2018
$end
$version
	ModelSim Version 10.5b
$end
$timescale
	1ps
$end

$scope module p1_vhd_vec_tst $end
$var wire 1 ! ADC_IN [11] $end
$var wire 1 " ADC_IN [10] $end
$var wire 1 # ADC_IN [9] $end
$var wire 1 $ ADC_IN [8] $end
$var wire 1 % ADC_IN [7] $end
$var wire 1 & ADC_IN [6] $end
$var wire 1 ' ADC_IN [5] $end
$var wire 1 ( ADC_IN [4] $end
$var wire 1 ) ADC_IN [3] $end
$var wire 1 * ADC_IN [2] $end
$var wire 1 + ADC_IN [1] $end
$var wire 1 , ADC_IN [0] $end
$var wire 1 - CLK $end
$var wire 1 . RESET $end
$var wire 1 / Y [11] $end
$var wire 1 0 Y [10] $end
$var wire 1 1 Y [9] $end
$var wire 1 2 Y [8] $end
$var wire 1 3 Y [7] $end
$var wire 1 4 Y [6] $end
$var wire 1 5 Y [5] $end
$var wire 1 6 Y [4] $end
$var wire 1 7 Y [3] $end
$var wire 1 8 Y [2] $end
$var wire 1 9 Y [1] $end
$var wire 1 : Y [0] $end

$scope module i1 $end
$var wire 1 ; gnd $end
$var wire 1 < vcc $end
$var wire 1 = unknown $end
$var wire 1 > devoe $end
$var wire 1 ? devclrn $end
$var wire 1 @ devpor $end
$var wire 1 A ww_devoe $end
$var wire 1 B ww_devclrn $end
$var wire 1 C ww_devpor $end
$var wire 1 D ww_Y [11] $end
$var wire 1 E ww_Y [10] $end
$var wire 1 F ww_Y [9] $end
$var wire 1 G ww_Y [8] $end
$var wire 1 H ww_Y [7] $end
$var wire 1 I ww_Y [6] $end
$var wire 1 J ww_Y [5] $end
$var wire 1 K ww_Y [4] $end
$var wire 1 L ww_Y [3] $end
$var wire 1 M ww_Y [2] $end
$var wire 1 N ww_Y [1] $end
$var wire 1 O ww_Y [0] $end
$var wire 1 P ww_CLK $end
$var wire 1 Q ww_RESET $end
$var wire 1 R ww_ADC_IN [11] $end
$var wire 1 S ww_ADC_IN [10] $end
$var wire 1 T ww_ADC_IN [9] $end
$var wire 1 U ww_ADC_IN [8] $end
$var wire 1 V ww_ADC_IN [7] $end
$var wire 1 W ww_ADC_IN [6] $end
$var wire 1 X ww_ADC_IN [5] $end
$var wire 1 Y ww_ADC_IN [4] $end
$var wire 1 Z ww_ADC_IN [3] $end
$var wire 1 [ ww_ADC_IN [2] $end
$var wire 1 \ ww_ADC_IN [1] $end
$var wire 1 ] ww_ADC_IN [0] $end
$var wire 1 ^ \RESET~inputclkctrl_INCLK_bus\ [3] $end
$var wire 1 _ \RESET~inputclkctrl_INCLK_bus\ [2] $end
$var wire 1 ` \RESET~inputclkctrl_INCLK_bus\ [1] $end
$var wire 1 a \RESET~inputclkctrl_INCLK_bus\ [0] $end
$var wire 1 b \CLK~inputclkctrl_INCLK_bus\ [3] $end
$var wire 1 c \CLK~inputclkctrl_INCLK_bus\ [2] $end
$var wire 1 d \CLK~inputclkctrl_INCLK_bus\ [1] $end
$var wire 1 e \CLK~inputclkctrl_INCLK_bus\ [0] $end
$var wire 1 f \Y[11]~output_o\ $end
$var wire 1 g \Y[10]~output_o\ $end
$var wire 1 h \Y[9]~output_o\ $end
$var wire 1 i \Y[8]~output_o\ $end
$var wire 1 j \Y[7]~output_o\ $end
$var wire 1 k \Y[6]~output_o\ $end
$var wire 1 l \Y[5]~output_o\ $end
$var wire 1 m \Y[4]~output_o\ $end
$var wire 1 n \Y[3]~output_o\ $end
$var wire 1 o \Y[2]~output_o\ $end
$var wire 1 p \Y[1]~output_o\ $end
$var wire 1 q \Y[0]~output_o\ $end
$var wire 1 r \CLK~input_o\ $end
$var wire 1 s \CLK~inputclkctrl_outclk\ $end
$var wire 1 t \ADC_IN[11]~input_o\ $end
$var wire 1 u \inst1|ADC_out[11]~feeder_combout\ $end
$var wire 1 v \RESET~input_o\ $end
$var wire 1 w \RESET~inputclkctrl_outclk\ $end
$var wire 1 x \ADC_IN[10]~input_o\ $end
$var wire 1 y \ADC_IN[9]~input_o\ $end
$var wire 1 z \inst1|ADC_out[9]~0_combout\ $end
$var wire 1 { \ADC_IN[8]~input_o\ $end
$var wire 1 | \inst1|ADC_out[8]~1_combout\ $end
$var wire 1 } \ADC_IN[7]~input_o\ $end
$var wire 1 ~ \ADC_IN[6]~input_o\ $end
$var wire 1 !! \inst1|ADC_out[6]~feeder_combout\ $end
$var wire 1 "! \ADC_IN[5]~input_o\ $end
$var wire 1 #! \inst1|ADC_out[5]~feeder_combout\ $end
$var wire 1 $! \ADC_IN[4]~input_o\ $end
$var wire 1 %! \ADC_IN[3]~input_o\ $end
$var wire 1 &! \inst1|ADC_out[3]~feeder_combout\ $end
$var wire 1 '! \ADC_IN[2]~input_o\ $end
$var wire 1 (! \inst1|ADC_out[2]~feeder_combout\ $end
$var wire 1 )! \ADC_IN[1]~input_o\ $end
$var wire 1 *! \inst1|ADC_out[1]~feeder_combout\ $end
$var wire 1 +! \ADC_IN[0]~input_o\ $end
$var wire 1 ,! \inst1|ADC_out[0]~feeder_combout\ $end
$var wire 1 -! \inst1|ADC_out\ [11] $end
$var wire 1 .! \inst1|ADC_out\ [10] $end
$var wire 1 /! \inst1|ADC_out\ [9] $end
$var wire 1 0! \inst1|ADC_out\ [8] $end
$var wire 1 1! \inst1|ADC_out\ [7] $end
$var wire 1 2! \inst1|ADC_out\ [6] $end
$var wire 1 3! \inst1|ADC_out\ [5] $end
$var wire 1 4! \inst1|ADC_out\ [4] $end
$var wire 1 5! \inst1|ADC_out\ [3] $end
$var wire 1 6! \inst1|ADC_out\ [2] $end
$var wire 1 7! \inst1|ADC_out\ [1] $end
$var wire 1 8! \inst1|ADC_out\ [0] $end
$var wire 1 9! \ALT_INV_RESET~inputclkctrl_outclk\ $end
$var wire 1 :! \inst1|ALT_INV_ADC_out\ [9] $end
$var wire 1 ;! \inst1|ALT_INV_ADC_out\ [8] $end
$upscope $end
$upscope $end
$enddefinitions $end
#0
$dumpvars
0-
0.
0;
1<
x=
1>
1?
1@
1A
1B
1C
0P
0Q
0f
0g
1h
1i
0j
0k
0l
0m
0n
0o
0p
0q
0r
0s
1t
1u
0v
0w
0x
1y
0z
0{
1|
1}
0~
0!!
0"!
0#!
0$!
0%!
0&!
0'!
0(!
1)!
1*!
0+!
0,!
19!
1!
0"
1#
0$
1%
0&
0'
0(
0)
0*
1+
0,
0D
0E
1F
1G
0H
0I
0J
0K
0L
0M
0N
0O
1R
0S
1T
0U
1V
0W
0X
0Y
0Z
0[
1\
0]
0-!
0.!
0/!
00!
01!
02!
03!
04!
05!
06!
07!
08!
1:!
1;!
1b
1c
1d
0e
1^
1_
1`
0a
0/
00
11
12
03
04
05
06
07
08
09
0:
$end
#10000
1-
1P
1r
1e
1s
1-!
10!
11!
17!
0;!
1p
1j
1f
0i
1N
1H
1D
0G
19
13
1/
02
#20000
0-
0P
0r
0e
0s
#30000
1-
1P
1r
1e
1s
#40000
0-
0P
0r
0e
0s
#50000
1-
1P
1r
1e
1s
#60000
0-
0P
0r
0e
0s
#70000
1-
1P
1r
1e
1s
#80000
0-
1.
0P
1Q
1v
0r
1a
0e
0s
1w
09!
0-!
00!
01!
07!
1;!
0p
0j
0f
1i
0N
0H
0D
1G
09
03
0/
12
#90000
1-
1P
1r
1e
1s
#100000
0-
0#
0%
0+
1,
0P
1]
0\
0V
0T
0y
0}
0)!
1+!
0r
0e
1,!
0*!
1z
0s
#110000
1-
1P
1r
1e
1s
#120000
0-
0P
0r
0e
0s
#130000
1-
1P
1r
1e
1s
#140000
0-
0P
0r
0e
0s
#150000
1-
1P
1r
1e
1s
#160000
0-
0P
0r
0e
0s
#170000
1-
1P
1r
1e
1s
#180000
0-
0P
0r
0e
0s
#190000
1-
1P
1r
1e
1s
#200000
0-
1#
1%
1+
0,
0!
1"
1$
1'
1(
0P
0]
1\
1Y
1X
1V
1U
1T
1S
0R
0t
1x
1y
1{
1}
1"!
1$!
1)!
0+!
0r
0e
0,!
1*!
1#!
0|
0z
0u
0s
#210000
1-
1P
1r
1e
1s
#220000
0-
0.
0P
0Q
0v
0r
0a
0e
0s
0w
19!
#230000
1-
1P
1r
1e
1s
1.!
11!
13!
14!
17!
1p
1m
1l
1j
1g
1N
1K
1J
1H
1E
19
16
15
13
10
#240000
0-
0P
0r
0e
0s
#250000
1-
1P
1r
1e
1s
#260000
0-
0P
0r
0e
0s
#270000
1-
1P
1r
1e
1s
#280000
0-
0P
0r
0e
0s
#290000
1-
1P
1r
1e
1s
#300000
0-
0#
1,
0$
0(
1&
1*
0P
1]
1[
0Y
1W
0U
0T
0y
0{
1~
0$!
1'!
1+!
0r
0e
1,!
1(!
1!!
1|
1z
0s
#310000
1-
1P
1r
1e
1s
1/!
10!
12!
04!
16!
18!
0;!
0:!
1q
1o
0m
1k
0h
0i
1O
1M
0K
1I
0F
0G
1:
18
06
14
02
01
#320000
0-
0P
0r
0e
0s
#330000
1-
1P
1r
1e
1s
#340000
0-
0P
0r
0e
0s
#350000
1-
1P
1r
1e
1s
#360000
0-
0P
0r
0e
0s
#370000
1-
1P
1r
1e
1s
#380000
0-
0P
0r
0e
0s
#390000
1-
1P
1r
1e
1s
#400000
0-
0,
1$
1(
0&
0*
0+
0'
0P
0]
0\
0[
1Y
0X
0W
1U
1{
0~
0"!
1$!
0'!
0)!
0+!
0r
0e
0,!
0*!
0(!
0#!
0!!
0|
0s
#410000
1-
1P
1r
1e
1s
00!
02!
03!
14!
06!
07!
08!
1;!
0q
0p
0o
1m
0l
0k
1i
0O
0N
0M
1K
0J
0I
1G
0:
09
08
16
05
04
12
#420000
0-
0P
0r
0e
0s
#430000
1-
1P
1r
1e
1s
#440000
0-
0P
0r
0e
0s
#450000
1-
1P
1r
1e
1s
#460000
0-
0P
0r
0e
0s
#470000
1-
1P
1r
1e
1s
#480000
0-
0P
0r
0e
0s
#490000
1-
1P
1r
1e
1s
#500000
0-
1,
0(
1&
1#
0%
1!
1)
0P
1]
1Z
0Y
1W
0V
1T
1R
1t
1y
0}
1~
0$!
1%!
1+!
0r
0e
1,!
1&!
1!!
0z
1u
0s
#510000
1-
1P
1r
1e
1s
1-!
0/!
01!
12!
04!
15!
18!
1:!
1q
1n
0m
1k
0j
1f
1h
1O
1L
0K
1I
0H
1D
1F
1:
17
06
14
03
1/
11
#520000
0-
0P
0r
0e
0s
#530000
1-
1P
1r
1e
1s
#540000
0-
0P
0r
0e
0s
#550000
1-
1P
1r
1e
1s
#560000
0-
0P
0r
0e
0s
#570000
1-
1P
1r
1e
1s
#580000
0-
0P
0r
0e
0s
#590000
1-
1P
1r
1e
1s
#600000
0-
0,
0&
0$
1*
0P
0]
1[
0W
0U
0{
0~
1'!
0+!
0r
0e
0,!
1(!
0!!
1|
0s
#610000
1-
1P
1r
1e
1s
10!
02!
16!
08!
0;!
0q
1o
0k
0i
0O
1M
0I
0G
0:
18
04
02
#620000
0-
0P
0r
0e
0s
#630000
1-
1P
1r
1e
1s
#640000
0-
0P
0r
0e
0s
#650000
1-
1P
1r
1e
1s
#660000
0-
0P
0r
0e
0s
#670000
1-
1P
1r
1e
1s
#680000
0-
0P
0r
0e
0s
#690000
1-
1P
1r
1e
1s
#700000
0-
1,
1(
0#
1%
0!
0)
0P
1]
0Z
1Y
1V
0T
0R
0t
0y
1}
1$!
0%!
1+!
0r
0e
1,!
0&!
1z
0u
0s
#710000
1-
1P
1r
1e
1s
0-!
1/!
11!
14!
05!
18!
0:!
1q
0n
1m
1j
0f
0h
1O
0L
1K
1H
0D
0F
1:
07
16
13
0/
01
#720000
0-
0P
0r
0e
0s
#730000
1-
1P
1r
1e
1s
#740000
0-
0P
0r
0e
0s
#750000
1-
1P
1r
1e
1s
#760000
0-
0P
0r
0e
0s
#770000
1-
1P
1r
1e
1s
#780000
0-
0P
0r
0e
0s
#790000
1-
1P
1r
1e
1s
#800000
0-
0,
1#
0%
1!
1+
0P
0]
1\
0V
1T
1R
1t
1y
0}
1)!
0+!
0r
0e
0,!
1*!
0z
1u
0s
#810000
1-
1P
1r
1e
1s
1-!
0/!
01!
17!
08!
1:!
0q
1p
0j
1f
1h
0O
1N
0H
1D
1F
0:
19
03
1/
11
#820000
0-
0P
0r
0e
0s
#830000
1-
1P
1r
1e
1s
#840000
0-
0P
0r
0e
0s
#850000
1-
1P
1r
1e
1s
#860000
0-
0P
0r
0e
0s
#870000
1-
1P
1r
1e
1s
#880000
0-
0P
0r
0e
0s
#890000
1-
1P
1r
1e
1s
#900000
0-
1,
0#
1%
0!
0+
1&
0*
0"
0P
1]
0\
0[
1W
1V
0T
0S
0R
0t
0x
0y
1}
1~
0'!
0)!
1+!
0r
0e
1,!
0*!
0(!
1!!
1z
0u
0s
#910000
1-
1P
1r
1e
1s
0-!
0.!
1/!
11!
12!
06!
07!
18!
0:!
1q
0p
0o
1k
1j
0g
0f
0h
1O
0N
0M
1I
1H
0E
0D
0F
1:
09
08
14
13
00
0/
01
#920000
0-
0P
0r
0e
0s
#930000
1-
1P
1r
1e
1s
#940000
0-
0P
0r
0e
0s
#950000
1-
1P
1r
1e
1s
#960000
0-
0P
0r
0e
0s
#970000
1-
1P
1r
1e
1s
#980000
0-
0P
0r
0e
0s
#990000
1-
1P
1r
1e
1s
