FPGA Code/VHDL Code/simulation/qsim/P1.msim.vcd
$comment
	File created using the following command:
		vcd file P1.msim.vcd -direction
$end
$date
	Mon Apr 30 16:27:59 2018
$end
$version
	ModelSim Version 10.5b
$end
$timescale
	1ps
$end

$scope module p1_vhd_vec_tst $end
$var wire 1 ! ADC_IN [11] $end
$var wire 1 " ADC_IN [10] $end
$var wire 1 # ADC_IN [9] $end
$var wire 1 $ ADC_IN [8] $end
$var wire 1 % ADC_IN [7] $end
$var wire 1 & ADC_IN [6] $end
$var wire 1 ' ADC_IN [5] $end
$var wire 1 ( ADC_IN [4] $end
$var wire 1 ) ADC_IN [3] $end
$var wire 1 * ADC_IN [2] $end
$var wire 1 + ADC_IN [1] $end
$var wire 1 , ADC_IN [0] $end
$var wire 1 - CLK $end
$var wire 1 . RESET $end
$var wire 1 / USER_BUTTON $end
$var wire 1 0 Y [15] $end
$var wire 1 1 Y [14] $end
$var wire 1 2 Y [13] $end
$var wire 1 3 Y [12] $end
$var wire 1 4 Y [11] $end
$var wire 1 5 Y [10] $end
$var wire 1 6 Y [9] $end
$var wire 1 7 Y [8] $end
$var wire 1 8 Y [7] $end
$var wire 1 9 Y [6] $end
$var wire 1 : Y [5] $end
$var wire 1 ; Y [4] $end
$var wire 1 < Y [3] $end
$var wire 1 = Y [2] $end
$var wire 1 > Y [1] $end
$var wire 1 ? Y [0] $end

$scope module i1 $end
$var wire 1 @ gnd $end
$var wire 1 A vcc $end
$var wire 1 B unknown $end
$var wire 1 C devoe $end
$var wire 1 D devclrn $end
$var wire 1 E devpor $end
$var wire 1 F ww_devoe $end
$var wire 1 G ww_devclrn $end
$var wire 1 H ww_devpor $end
$var wire 1 I ww_Y [15] $end
$var wire 1 J ww_Y [14] $end
$var wire 1 K ww_Y [13] $end
$var wire 1 L ww_Y [12] $end
$var wire 1 M ww_Y [11] $end
$var wire 1 N ww_Y [10] $end
$var wire 1 O ww_Y [9] $end
$var wire 1 P ww_Y [8] $end
$var wire 1 Q ww_Y [7] $end
$var wire 1 R ww_Y [6] $end
$var wire 1 S ww_Y [5] $end
$var wire 1 T ww_Y [4] $end
$var wire 1 U ww_Y [3] $end
$var wire 1 V ww_Y [2] $end
$var wire 1 W ww_Y [1] $end
$var wire 1 X ww_Y [0] $end
$var wire 1 Y ww_CLK $end
$var wire 1 Z ww_RESET $end
$var wire 1 [ ww_USER_BUTTON $end
$var wire 1 \ ww_ADC_IN [11] $end
$var wire 1 ] ww_ADC_IN [10] $end
$var wire 1 ^ ww_ADC_IN [9] $end
$var wire 1 _ ww_ADC_IN [8] $end
$var wire 1 ` ww_ADC_IN [7] $end
$var wire 1 a ww_ADC_IN [6] $end
$var wire 1 b ww_ADC_IN [5] $end
$var wire 1 c ww_ADC_IN [4] $end
$var wire 1 d ww_ADC_IN [3] $end
$var wire 1 e ww_ADC_IN [2] $end
$var wire 1 f ww_ADC_IN [1] $end
$var wire 1 g ww_ADC_IN [0] $end
$var wire 1 h \RESET~inputclkctrl_INCLK_bus\ [3] $end
$var wire 1 i \RESET~inputclkctrl_INCLK_bus\ [2] $end
$var wire 1 j \RESET~inputclkctrl_INCLK_bus\ [1] $end
$var wire 1 k \RESET~inputclkctrl_INCLK_bus\ [0] $end
$var wire 1 l \CLK~inputclkctrl_INCLK_bus\ [3] $end
$var wire 1 m \CLK~inputclkctrl_INCLK_bus\ [2] $end
$var wire 1 n \CLK~inputclkctrl_INCLK_bus\ [1] $end
$var wire 1 o \CLK~inputclkctrl_INCLK_bus\ [0] $end
$var wire 1 p \Y[15]~output_o\ $end
$var wire 1 q \Y[14]~output_o\ $end
$var wire 1 r \Y[13]~output_o\ $end
$var wire 1 s \Y[12]~output_o\ $end
$var wire 1 t \Y[11]~output_o\ $end
$var wire 1 u \Y[10]~output_o\ $end
$var wire 1 v \Y[9]~output_o\ $end
$var wire 1 w \Y[8]~output_o\ $end
$var wire 1 x \Y[7]~output_o\ $end
$var wire 1 y \Y[6]~output_o\ $end
$var wire 1 z \Y[5]~output_o\ $end
$var wire 1 { \Y[4]~output_o\ $end
$var wire 1 | \Y[3]~output_o\ $end
$var wire 1 } \Y[2]~output_o\ $end
$var wire 1 ~ \Y[1]~output_o\ $end
$var wire 1 !! \Y[0]~output_o\ $end
$var wire 1 "! \CLK~input_o\ $end
$var wire 1 #! \CLK~inputclkctrl_outclk\ $end
$var wire 1 $! \inst|ADC_out[15]~feeder_combout\ $end
$var wire 1 %! \RESET~input_o\ $end
$var wire 1 &! \RESET~inputclkctrl_outclk\ $end
$var wire 1 '! \USER_BUTTON~input_o\ $end
$var wire 1 (! \inst|latched~combout\ $end
$var wire 1 )! \inst|ADC_out[15]~0_combout\ $end
$var wire 1 *! \inst|ADC_out[13]~feeder_combout\ $end
$var wire 1 +! \inst|ADC_out[12]~feeder_combout\ $end
$var wire 1 ,! \ADC_IN[11]~input_o\ $end
$var wire 1 -! \inst|ADC_out[11]~feeder_combout\ $end
$var wire 1 .! \ADC_IN[10]~input_o\ $end
$var wire 1 /! \inst|ADC_out[10]~feeder_combout\ $end
$var wire 1 0! \ADC_IN[9]~input_o\ $end
$var wire 1 1! \inst|ADC_out[9]~feeder_combout\ $end
$var wire 1 2! \ADC_IN[8]~input_o\ $end
$var wire 1 3! \ADC_IN[7]~input_o\ $end
$var wire 1 4! \ADC_IN[6]~input_o\ $end
$var wire 1 5! \ADC_IN[5]~input_o\ $end
$var wire 1 6! \inst|ADC_out[5]~feeder_combout\ $end
$var wire 1 7! \ADC_IN[4]~input_o\ $end
$var wire 1 8! \inst|ADC_out[4]~feeder_combout\ $end
$var wire 1 9! \ADC_IN[3]~input_o\ $end
$var wire 1 :! \inst|ADC_out[3]~feeder_combout\ $end
$var wire 1 ;! \ADC_IN[2]~input_o\ $end
$var wire 1 <! \ADC_IN[1]~input_o\ $end
$var wire 1 =! \ADC_IN[0]~input_o\ $end
$var wire 1 >! \inst|ADC_out\ [15] $end
$var wire 1 ?! \inst|ADC_out\ [14] $end
$var wire 1 @! \inst|ADC_out\ [13] $end
$var wire 1 A! \inst|ADC_out\ [12] $end
$var wire 1 B! \inst|ADC_out\ [11] $end
$var wire 1 C! \inst|ADC_out\ [10] $end
$var wire 1 D! \inst|ADC_out\ [9] $end
$var wire 1 E! \inst|ADC_out\ [8] $end
$var wire 1 F! \inst|ADC_out\ [7] $end
$var wire 1 G! \inst|ADC_out\ [6] $end
$var wire 1 H! \inst|ADC_out\ [5] $end
$var wire 1 I! \inst|ADC_out\ [4] $end
$var wire 1 J! \inst|ADC_out\ [3] $end
$var wire 1 K! \inst|ADC_out\ [2] $end
$var wire 1 L! \inst|ADC_out\ [1] $end
$var wire 1 M! \inst|ADC_out\ [0] $end
$var wire 1 N! \ALT_INV_RESET~inputclkctrl_outclk\ $end
$var wire 1 O! \inst|ALT_INV_ADC_out\ [13] $end
$var wire 1 P! \inst|ALT_INV_ADC_out\ [12] $end
$upscope $end
$upscope $end
$enddefinitions $end
#0
$dumpvars
0-
0.
1/
0@
1A
xB
1C
1D
1E
1F
1G
1H
0Y
0Z
1[
0p
0q
1r
1s
0t
0u
0v
0w
0x
0y
0z
0{
0|
0}
0~
0!!
0"!
0#!
1$!
0%!
0&!
1'!
1(!
0)!
1*!
1+!
1,!
1-!
0.!
0/!
00!
01!
12!
03!
04!
15!
16!
07!
08!
19!
1:!
1;!
1<!
1=!
1N!
1!
0"
0#
1$
0%
0&
1'
0(
1)
1*
1+
1,
0I
0J
1K
1L
0M
0N
0O
0P
0Q
0R
0S
0T
0U
0V
0W
0X
1\
0]
0^
1_
0`
0a
1b
0c
1d
1e
1f
1g
0>!
x?!
0@!
0A!
0B!
0C!
0D!
0E!
0F!
0G!
0H!
0I!
0J!
0K!
0L!
0M!
1O!
1P!
1l
1m
1n
0o
1h
1i
1j
0k
00
01
12
13
04
05
06
07
08
09
0:
0;
0<
0=
0>
0?
$end
#10000
1-
1Y
1"!
1o
1#!
#20000
0-
0/
0Y
0[
0'!
0"!
0o
1)!
0#!
#30000
1-
1Y
1"!
1o
1#!
1>!
1@!
1A!
1B!
1E!
1H!
1J!
1K!
1L!
1M!
0P!
0O!
1!!
1~
1}
1|
1z
1w
1t
1p
0r
0s
1X
1W
1V
1U
1S
1P
1M
1I
0K
0L
1?
1>
1=
1<
1:
17
14
10
03
02
#40000
0-
0Y
0"!
0o
0#!
#50000
1-
1Y
1"!
1o
1#!
#60000
0-
0Y
0"!
0o
0#!
#70000
1-
1Y
1"!
1o
1#!
#80000
0-
0Y
0"!
0o
0#!
#90000
1-
1.
1Y
1Z
1%!
1"!
1k
1o
0(!
0)!
1#!
1&!
0N!
0>!
0@!
0A!
0B!
0E!
0H!
0J!
0K!
0L!
0M!
1P!
1O!
0!!
0~
0}
0|
0z
0w
0t
0p
1r
1s
0X
0W
0V
0U
0S
0P
0M
0I
1K
1L
0?
0>
0=
0<
0:
07
04
00
13
12
#100000
0-
1#
0$
1%
1&
0*
0+
0,
0Y
0g
0f
0e
1a
1`
0_
1^
10!
02!
13!
14!
0;!
0<!
0=!
0"!
0o
11!
0#!
#110000
1-
0.
1Y
0Z
0%!
1"!
0k
1o
1#!
0&!
1N!
#120000
0-
0Y
0"!
0o
0#!
#130000
1-
1Y
1"!
1o
1#!
#140000
0-
0Y
0"!
0o
0#!
#150000
1-
1/
1Y
1[
1'!
1"!
1o
1(!
1#!
#160000
0-
0Y
0"!
0o
0#!
#170000
1-
0/
1Y
0[
0'!
1"!
1o
1)!
1#!
1>!
1@!
1A!
1B!
1D!
1F!
1G!
1H!
1J!
0P!
0O!
1|
1z
1y
1x
1v
1t
1p
0r
0s
1U
1S
1R
1Q
1O
1M
1I
0K
0L
1<
1:
19
18
16
14
10
03
02
#180000
0-
0Y
0"!
0o
0#!
#190000
1-
1Y
1"!
1o
1#!
#200000
0-
1$
0%
0&
1*
1,
0'
0)
0Y
1g
1e
0d
0b
0a
0`
1_
12!
03!
04!
05!
09!
1;!
1=!
0"!
0o
0:!
06!
0#!
#210000
1-
1Y
1"!
1o
1#!
1E!
0F!
0G!
0H!
0J!
1K!
1M!
1!!
1}
0|
0z
0y
0x
1w
1X
1V
0U
0S
0R
0Q
1P
1?
1=
0<
0:
09
08
17
#220000
0-
0Y
0"!
0o
0#!
#230000
1-
1Y
1"!
1o
1#!
#240000
0-
0Y
0"!
0o
0#!
#250000
1-
1/
1Y
1[
1'!
1"!
1o
0)!
1#!
#260000
0-
0Y
0"!
0o
0#!
#270000
1-
1Y
1"!
1o
1#!
#280000
0-
0Y
0"!
0o
0#!
#290000
1-
1Y
1"!
1o
1#!
#300000
0-
0$
1%
1&
0*
0!
0Y
0e
1a
1`
0_
0\
0,!
02!
13!
14!
0;!
0"!
0o
0-!
0#!
#310000
1-
1Y
1"!
1o
1#!
#320000
0-
0Y
0"!
0o
0#!
#330000
1-
1Y
1"!
1o
1#!
#340000
0-
0Y
0"!
0o
0#!
#350000
1-
1Y
1"!
1o
1#!
#360000
0-
0Y
0"!
0o
0#!
#370000
1-
0/
1Y
0[
0'!
1"!
1o
1)!
1#!
0B!
0E!
1F!
1G!
0K!
0}
1y
1x
0w
0t
0V
1R
1Q
0P
0M
0=
19
18
07
04
#380000
0-
0Y
0"!
0o
0#!
#390000
1-
1Y
1"!
1o
1#!
#400000
0-
1$
0%
1*
1!
1)
1+
1(
0Y
1f
1e
1d
1c
0`
1_
1\
1,!
12!
03!
17!
19!
1;!
1<!
0"!
0o
1:!
18!
1-!
0#!
#410000
1-
1Y
1"!
1o
1#!
1B!
1E!
0F!
1I!
1J!
1K!
1L!
1~
1}
1|
1{
0x
1w
1t
1W
1V
1U
1T
0Q
1P
1M
1>
1=
1<
1;
08
17
14
#420000
0-
0Y
0"!
0o
0#!
#430000
1-
1Y
1"!
1o
1#!
#440000
0-
0Y
0"!
0o
0#!
#450000
1-
1Y
1"!
1o
1#!
#460000
0-
0Y
0"!
0o
0#!
#470000
1-
1Y
1"!
1o
1#!
#480000
0-
0Y
0"!
0o
0#!
#490000
1-
1.
1Y
1Z
1%!
1"!
1k
1o
0(!
0)!
1#!
1&!
0N!
0>!
0@!
0A!
0B!
0D!
0E!
0G!
0I!
0J!
0K!
0L!
0M!
1P!
1O!
0!!
0~
0}
0|
0{
0y
0w
0v
0t
0p
1r
1s
0X
0W
0V
0U
0T
0R
0P
0O
0M
0I
1K
1L
0?
0>
0=
0<
0;
09
07
06
04
00
13
12
#500000
0-
0$
0!
0+
0(
0,
1'
1"
0Y
0g
0f
0c
1b
0_
1]
0\
0,!
1.!
02!
15!
07!
0<!
0=!
0"!
0o
08!
16!
1/!
0-!
0#!
#510000
1-
0.
1Y
0Z
0%!
1"!
0k
1o
1#!
0&!
1N!
#520000
0-
0Y
0"!
0o
0#!
#530000
1-
1Y
1"!
1o
1#!
#540000
0-
0Y
0"!
0o
0#!
#550000
1-
1Y
1"!
1o
1#!
#560000
0-
0Y
0"!
0o
0#!
#570000
1-
1Y
1"!
1o
1#!
#580000
0-
0Y
0"!
0o
0#!
#590000
1-
1/
1Y
1[
1'!
1"!
1o
1(!
1#!
#600000
0-
1+
1(
1,
0'
1%
0*
0)
0#
0Y
1g
1f
0e
0d
1c
0b
1`
0^
00!
13!
05!
17!
09!
0;!
1<!
1=!
0"!
0o
0:!
18!
06!
01!
0#!
#610000
1-
0/
1Y
0[
0'!
1"!
1o
1)!
1#!
1>!
1@!
1A!
1C!
1F!
1G!
1I!
1L!
1M!
0P!
0O!
1!!
1~
1{
1y
1x
1u
1p
0r
0s
1X
1W
1T
1R
1Q
1N
1I
0K
0L
1?
1>
1;
19
18
15
10
03
02
#620000
0-
0Y
0"!
0o
0#!
#630000
1-
1Y
1"!
1o
1#!
#640000
0-
0Y
0"!
0o
0#!
#650000
1-
1Y
1"!
1o
1#!
#660000
0-
0Y
0"!
0o
0#!
#670000
1-
1Y
1"!
1o
1#!
#680000
0-
0Y
0"!
0o
0#!
#690000
1-
1Y
1"!
1o
1#!
#700000
0-
0(
1'
1$
0&
0Y
0c
1b
0a
1_
12!
04!
15!
07!
0"!
0o
08!
16!
0#!
#710000
1-
1Y
1"!
1o
1#!
1E!
0G!
1H!
0I!
0{
1z
0y
1w
0T
1S
0R
1P
0;
1:
09
17
#720000
0-
0Y
0"!
0o
0#!
#730000
1-
1Y
1"!
1o
1#!
#740000
0-
0Y
0"!
0o
0#!
#750000
1-
1Y
1"!
1o
1#!
#760000
0-
0Y
0"!
0o
0#!
#770000
1-
1Y
1"!
1o
1#!
#780000
0-
0Y
0"!
0o
0#!
#790000
1-
1Y
1"!
1o
1#!
#800000
0-
1(
0'
1&
0,
0%
1*
1!
0Y
0g
1e
1c
0b
1a
0`
1\
1,!
03!
14!
05!
17!
1;!
0=!
0"!
0o
18!
06!
1-!
0#!
#810000
1-
1Y
1"!
1o
1#!
1B!
0F!
1G!
0H!
1I!
1K!
0M!
0!!
1}
1{
0z
1y
0x
1t
0X
1V
1T
0S
1R
0Q
1M
0?
1=
1;
0:
19
08
14
#820000
0-
0Y
0"!
0o
0#!
#830000
1-
1Y
1"!
1o
1#!
#840000
0-
0Y
0"!
0o
0#!
#850000
1-
1Y
1"!
1o
1#!
#860000
0-
0Y
0"!
0o
0#!
#870000
1-
1Y
1"!
1o
1#!
#880000
0-
0Y
0"!
0o
0#!
#890000
1-
1Y
1"!
1o
1#!
#900000
0-
0&
1%
0$
0+
1#
0Y
0f
0a
1`
0_
1^
10!
02!
13!
04!
0<!
0"!
0o
11!
0#!
#910000
1-
1Y
1"!
1o
1#!
1D!
0E!
1F!
0G!
0L!
0~
0y
1x
0w
1v
0W
0R
1Q
0P
1O
0>
09
18
07
16
#920000
0-
0Y
0"!
0o
0#!
#930000
1-
1Y
1"!
1o
1#!
#940000
0-
0Y
0"!
0o
0#!
#950000
1-
1Y
1"!
1o
1#!
#960000
0-
0Y
0"!
0o
0#!
#970000
1-
1Y
1"!
1o
1#!
#980000
0-
0Y
0"!
0o
0#!
#990000
1-
1Y
1"!
1o
1#!
